…
Let’s use the Schnakenberg and Fariss (2014) dataset.

``` r
id <- owid_search(ds, "Human Rights Scores – Schnakenberg and Fariss")$id

rights <- owid(id, ds)
## Human Rights Scores – Schnakenberg and Fariss (2014), Fariss (2019)

rights
## # A tibble: 11,717 x 3
##    Entity       Year `Human Rights Scores`
##  * <chr>       <dbl>                 <dbl>
##  1 Afghanistan  1946                 0.690
##  2 Afghanistan  1947                 0.740
##  3 Afghanistan  1948                 0.787
##  4 Afghanistan  1949                 0.817
##  5 Afghanistan  1950                 0.851
##  6 Afghanistan  1951                 0.909
##  7 Afghanistan  1952                 0.938
##  8 Afghanistan  1953                 0.988
##  9 Afghanistan  1954                 1.01 
## 10 Afghanistan  1955                 1.01 
## # … with 11,707 more rows
```
…
